GFORTRAN module version '10' created from fdmodule.f90
MD5:b34c9d7f7f144d16671718a695f1d15a -- If you edit this, you'll get what you deserve.

(() () () () () () () () () () () () () () () () () () () () () () ()
() () () ())

()

(('omp_get_ancestor_thread_num' 'omp_lib' 2 3) ('omp_get_schedule'
'omp_lib' 4 5) ('omp_get_team_size' 'omp_lib' 6 7) ('omp_set_dynamic'
'omp_lib' 8 9) ('omp_set_max_active_levels' 'omp_lib' 10 11) (
'omp_set_nested' 'omp_lib' 12 13) ('omp_set_num_threads' 'omp_lib' 14 15)
('omp_set_schedule' 'omp_lib' 16 17))

()

()

()

(18 'cfd4' 'fdmodule' '' 1 ((PROCEDURE UNKNOWN-INTENT MODULE-PROC DECL
UNKNOWN 0 0 SUBROUTINE ALWAYS_EXPLICIT) (UNKNOWN 0 0 0 0 UNKNOWN ()) 19
0 (20 21) () 0 () () () 0 0)
22 'dx' 'fdmodule' '' 1 ((VARIABLE UNKNOWN-INTENT UNKNOWN-PROC UNKNOWN
EXPLICIT-SAVE 0 0) (REAL 8 0 0 0 REAL ()) 0 0 () () 0 () () () 0 0)
23 'fd2' 'fdmodule' '' 1 ((PROCEDURE UNKNOWN-INTENT MODULE-PROC DECL
UNKNOWN 0 0 SUBROUTINE IMPLICIT_PURE ALWAYS_EXPLICIT) (UNKNOWN 0 0 0 0
UNKNOWN ()) 24 0 (25 26) () 0 () () () 0 0)
27 'fdmodule' 'fdmodule' '' 1 ((MODULE UNKNOWN-INTENT UNKNOWN-PROC
UNKNOWN UNKNOWN 0 0) (UNKNOWN 0 0 0 0 UNKNOWN ()) 0 0 () () 0 () () () 0
0)
28 'n' 'fdmodule' '' 1 ((VARIABLE UNKNOWN-INTENT UNKNOWN-PROC UNKNOWN
EXPLICIT-SAVE 0 0) (INTEGER 4 0 0 0 INTEGER ()) 0 0 () () 0 () () () 0 0)
29 'omp_destroy_lock' 'omp_lib' '' 1 ((PROCEDURE UNKNOWN-INTENT
MODULE-PROC BODY UNKNOWN 0 0 EXTERNAL SUBROUTINE) (UNKNOWN 0 0 0 0
UNKNOWN ()) 30 0 (31) () 0 () () () 0 0)
32 'omp_destroy_nest_lock' 'omp_lib' '' 1 ((PROCEDURE UNKNOWN-INTENT
MODULE-PROC BODY UNKNOWN 0 0 EXTERNAL SUBROUTINE) (UNKNOWN 0 0 0 0
UNKNOWN ()) 33 0 (34) () 0 () () () 0 0)
35 'omp_get_active_level' 'omp_lib' '' 1 ((PROCEDURE UNKNOWN-INTENT
MODULE-PROC BODY UNKNOWN 0 0 EXTERNAL FUNCTION) (INTEGER 4 0 0 0 INTEGER
()) 36 0 () () 35 () () () 0 0)
3 'omp_get_ancestor_thread_num' 'omp_lib' '' 1 ((PROCEDURE
UNKNOWN-INTENT MODULE-PROC BODY UNKNOWN 0 0 EXTERNAL FUNCTION GENERIC) (
INTEGER 4 0 0 0 INTEGER ()) 37 0 (38) () 3 () () () 0 0)
2 'omp_get_ancestor_thread_num_8' 'omp_lib' '' 1 ((PROCEDURE
UNKNOWN-INTENT MODULE-PROC BODY UNKNOWN 0 0 EXTERNAL FUNCTION) (INTEGER
4 0 0 0 INTEGER ()) 39 0 (40) () 2 () () () 0 0)
41 'omp_get_dynamic' 'omp_lib' '' 1 ((PROCEDURE UNKNOWN-INTENT
MODULE-PROC BODY UNKNOWN 0 0 EXTERNAL FUNCTION) (LOGICAL 4 0 0 0 LOGICAL
()) 42 0 () () 41 () () () 0 0)
43 'omp_get_level' 'omp_lib' '' 1 ((PROCEDURE UNKNOWN-INTENT MODULE-PROC
BODY UNKNOWN 0 0 EXTERNAL FUNCTION) (INTEGER 4 0 0 0 INTEGER ()) 44 0 ()
() 43 () () () 0 0)
45 'omp_get_max_active_levels' 'omp_lib' '' 1 ((PROCEDURE UNKNOWN-INTENT
MODULE-PROC BODY UNKNOWN 0 0 EXTERNAL FUNCTION) (INTEGER 4 0 0 0 INTEGER
()) 46 0 () () 45 () () () 0 0)
47 'omp_get_max_threads' 'omp_lib' '' 1 ((PROCEDURE UNKNOWN-INTENT
MODULE-PROC BODY UNKNOWN 0 0 EXTERNAL FUNCTION) (INTEGER 4 0 0 0 INTEGER
()) 48 0 () () 47 () () () 0 0)
49 'omp_get_nested' 'omp_lib' '' 1 ((PROCEDURE UNKNOWN-INTENT
MODULE-PROC BODY UNKNOWN 0 0 EXTERNAL FUNCTION) (LOGICAL 4 0 0 0 LOGICAL
()) 50 0 () () 49 () () () 0 0)
51 'omp_get_num_procs' 'omp_lib' '' 1 ((PROCEDURE UNKNOWN-INTENT
MODULE-PROC BODY UNKNOWN 0 0 EXTERNAL FUNCTION) (INTEGER 4 0 0 0 INTEGER
()) 52 0 () () 51 () () () 0 0)
53 'omp_get_num_threads' 'omp_lib' '' 1 ((PROCEDURE UNKNOWN-INTENT
MODULE-PROC BODY UNKNOWN 0 0 EXTERNAL FUNCTION) (INTEGER 4 0 0 0 INTEGER
()) 54 0 () () 53 () () () 0 0)
5 'omp_get_schedule' 'omp_lib' '' 1 ((PROCEDURE UNKNOWN-INTENT
MODULE-PROC BODY UNKNOWN 0 0 EXTERNAL SUBROUTINE GENERIC) (UNKNOWN 0 0 0
0 UNKNOWN ()) 55 0 (56 57) () 0 () () () 0 0)
4 'omp_get_schedule_8' 'omp_lib' '' 1 ((PROCEDURE UNKNOWN-INTENT
MODULE-PROC BODY UNKNOWN 0 0 EXTERNAL SUBROUTINE) (UNKNOWN 0 0 0 0
UNKNOWN ()) 58 0 (59 60) () 0 () () () 0 0)
7 'omp_get_team_size' 'omp_lib' '' 1 ((PROCEDURE UNKNOWN-INTENT
MODULE-PROC BODY UNKNOWN 0 0 EXTERNAL FUNCTION GENERIC) (INTEGER 4 0 0 0
INTEGER ()) 61 0 (62) () 7 () () () 0 0)
6 'omp_get_team_size_8' 'omp_lib' '' 1 ((PROCEDURE UNKNOWN-INTENT
MODULE-PROC BODY UNKNOWN 0 0 EXTERNAL FUNCTION) (INTEGER 4 0 0 0 INTEGER
()) 63 0 (64) () 6 () () () 0 0)
65 'omp_get_thread_limit' 'omp_lib' '' 1 ((PROCEDURE UNKNOWN-INTENT
MODULE-PROC BODY UNKNOWN 0 0 EXTERNAL FUNCTION) (INTEGER 4 0 0 0 INTEGER
()) 66 0 () () 65 () () () 0 0)
67 'omp_get_thread_num' 'omp_lib' '' 1 ((PROCEDURE UNKNOWN-INTENT
MODULE-PROC BODY UNKNOWN 0 0 EXTERNAL FUNCTION) (INTEGER 4 0 0 0 INTEGER
()) 68 0 () () 67 () () () 0 0)
69 'omp_get_wtick' 'omp_lib' '' 1 ((PROCEDURE UNKNOWN-INTENT MODULE-PROC
BODY UNKNOWN 0 0 EXTERNAL FUNCTION) (REAL 8 0 0 0 REAL ()) 70 0 () () 69
() () () 0 0)
71 'omp_get_wtime' 'omp_lib' '' 1 ((PROCEDURE UNKNOWN-INTENT MODULE-PROC
BODY UNKNOWN 0 0 EXTERNAL FUNCTION) (REAL 8 0 0 0 REAL ()) 72 0 () () 71
() () () 0 0)
73 'omp_in_final' 'omp_lib' '' 1 ((PROCEDURE UNKNOWN-INTENT MODULE-PROC
BODY UNKNOWN 0 0 EXTERNAL FUNCTION) (LOGICAL 4 0 0 0 LOGICAL ()) 74 0 ()
() 73 () () () 0 0)
75 'omp_in_parallel' 'omp_lib' '' 1 ((PROCEDURE UNKNOWN-INTENT
MODULE-PROC BODY UNKNOWN 0 0 EXTERNAL FUNCTION) (LOGICAL 4 0 0 0 LOGICAL
()) 76 0 () () 75 () () () 0 0)
77 'omp_init_lock' 'omp_lib' '' 1 ((PROCEDURE UNKNOWN-INTENT MODULE-PROC
BODY UNKNOWN 0 0 EXTERNAL SUBROUTINE) (UNKNOWN 0 0 0 0 UNKNOWN ()) 78 0
(79) () 0 () () () 0 0)
80 'omp_init_nest_lock' 'omp_lib' '' 1 ((PROCEDURE UNKNOWN-INTENT
MODULE-PROC BODY UNKNOWN 0 0 EXTERNAL SUBROUTINE) (UNKNOWN 0 0 0 0
UNKNOWN ()) 81 0 (82) () 0 () () () 0 0)
83 'omp_lib' 'omp_lib' '' 1 ((MODULE UNKNOWN-INTENT UNKNOWN-PROC UNKNOWN
UNKNOWN 0 0) (UNKNOWN 0 0 0 0 UNKNOWN ()) 0 0 () () 0 () () () 0 0)
84 'omp_lib_kinds' 'omp_lib_kinds' '' 1 ((MODULE UNKNOWN-INTENT
UNKNOWN-PROC UNKNOWN UNKNOWN 0 0) (UNKNOWN 0 0 0 0 UNKNOWN ()) 0 0 () ()
0 () () () 0 0)
85 'omp_lock_kind' 'omp_lib_kinds' '' 1 ((PARAMETER UNKNOWN-INTENT
UNKNOWN-PROC UNKNOWN IMPLICIT-SAVE 0 0) (INTEGER 4 0 0 0 INTEGER ()) 0 0
() (CONSTANT (INTEGER 4 0 0 0 INTEGER ()) 0 '4') () 0 () () () 0 0)
86 'omp_nest_lock_kind' 'omp_lib_kinds' '' 1 ((PARAMETER UNKNOWN-INTENT
UNKNOWN-PROC UNKNOWN IMPLICIT-SAVE 0 0) (INTEGER 4 0 0 0 INTEGER ()) 0 0
() (CONSTANT (INTEGER 4 0 0 0 INTEGER ()) 0 '8') () 0 () () () 0 0)
87 'omp_sched_auto' 'omp_lib' '' 1 ((PARAMETER UNKNOWN-INTENT
UNKNOWN-PROC UNKNOWN IMPLICIT-SAVE 0 0) (INTEGER 4 0 0 0 INTEGER ()) 0 0
() (CONSTANT (INTEGER 4 0 0 0 INTEGER ()) 0 '4') () 0 () () () 0 0)
88 'omp_sched_dynamic' 'omp_lib' '' 1 ((PARAMETER UNKNOWN-INTENT
UNKNOWN-PROC UNKNOWN IMPLICIT-SAVE 0 0) (INTEGER 4 0 0 0 INTEGER ()) 0 0
() (CONSTANT (INTEGER 4 0 0 0 INTEGER ()) 0 '2') () 0 () () () 0 0)
89 'omp_sched_guided' 'omp_lib' '' 1 ((PARAMETER UNKNOWN-INTENT
UNKNOWN-PROC UNKNOWN IMPLICIT-SAVE 0 0) (INTEGER 4 0 0 0 INTEGER ()) 0 0
() (CONSTANT (INTEGER 4 0 0 0 INTEGER ()) 0 '3') () 0 () () () 0 0)
90 'omp_sched_kind' 'omp_lib_kinds' '' 1 ((PARAMETER UNKNOWN-INTENT
UNKNOWN-PROC UNKNOWN IMPLICIT-SAVE 0 0) (INTEGER 4 0 0 0 INTEGER ()) 0 0
() (CONSTANT (INTEGER 4 0 0 0 INTEGER ()) 0 '4') () 0 () () () 0 0)
91 'omp_sched_static' 'omp_lib' '' 1 ((PARAMETER UNKNOWN-INTENT
UNKNOWN-PROC UNKNOWN IMPLICIT-SAVE 0 0) (INTEGER 4 0 0 0 INTEGER ()) 0 0
() (CONSTANT (INTEGER 4 0 0 0 INTEGER ()) 0 '1') () 0 () () () 0 0)
9 'omp_set_dynamic' 'omp_lib' '' 1 ((PROCEDURE UNKNOWN-INTENT
MODULE-PROC BODY UNKNOWN 0 0 EXTERNAL SUBROUTINE GENERIC) (UNKNOWN 0 0 0
0 UNKNOWN ()) 92 0 (93) () 0 () () () 0 0)
8 'omp_set_dynamic_8' 'omp_lib' '' 1 ((PROCEDURE UNKNOWN-INTENT
MODULE-PROC BODY UNKNOWN 0 0 EXTERNAL SUBROUTINE) (UNKNOWN 0 0 0 0
UNKNOWN ()) 94 0 (95) () 0 () () () 0 0)
96 'omp_set_lock' 'omp_lib' '' 1 ((PROCEDURE UNKNOWN-INTENT MODULE-PROC
BODY UNKNOWN 0 0 EXTERNAL SUBROUTINE) (UNKNOWN 0 0 0 0 UNKNOWN ()) 97 0
(98) () 0 () () () 0 0)
11 'omp_set_max_active_levels' 'omp_lib' '' 1 ((PROCEDURE UNKNOWN-INTENT
MODULE-PROC BODY UNKNOWN 0 0 EXTERNAL SUBROUTINE GENERIC) (UNKNOWN 0 0 0
0 UNKNOWN ()) 99 0 (100) () 0 () () () 0 0)
10 'omp_set_max_active_levels_8' 'omp_lib' '' 1 ((PROCEDURE
UNKNOWN-INTENT MODULE-PROC BODY UNKNOWN 0 0 EXTERNAL SUBROUTINE) (
UNKNOWN 0 0 0 0 UNKNOWN ()) 101 0 (102) () 0 () () () 0 0)
103 'omp_set_nest_lock' 'omp_lib' '' 1 ((PROCEDURE UNKNOWN-INTENT
MODULE-PROC BODY UNKNOWN 0 0 EXTERNAL SUBROUTINE) (UNKNOWN 0 0 0 0
UNKNOWN ()) 104 0 (105) () 0 () () () 0 0)
13 'omp_set_nested' 'omp_lib' '' 1 ((PROCEDURE UNKNOWN-INTENT
MODULE-PROC BODY UNKNOWN 0 0 EXTERNAL SUBROUTINE GENERIC) (UNKNOWN 0 0 0
0 UNKNOWN ()) 106 0 (107) () 0 () () () 0 0)
12 'omp_set_nested_8' 'omp_lib' '' 1 ((PROCEDURE UNKNOWN-INTENT
MODULE-PROC BODY UNKNOWN 0 0 EXTERNAL SUBROUTINE) (UNKNOWN 0 0 0 0
UNKNOWN ()) 108 0 (109) () 0 () () () 0 0)
15 'omp_set_num_threads' 'omp_lib' '' 1 ((PROCEDURE UNKNOWN-INTENT
MODULE-PROC BODY UNKNOWN 0 0 EXTERNAL SUBROUTINE GENERIC) (UNKNOWN 0 0 0
0 UNKNOWN ()) 110 0 (111) () 0 () () () 0 0)
14 'omp_set_num_threads_8' 'omp_lib' '' 1 ((PROCEDURE UNKNOWN-INTENT
MODULE-PROC BODY UNKNOWN 0 0 EXTERNAL SUBROUTINE) (UNKNOWN 0 0 0 0
UNKNOWN ()) 112 0 (113) () 0 () () () 0 0)
17 'omp_set_schedule' 'omp_lib' '' 1 ((PROCEDURE UNKNOWN-INTENT
MODULE-PROC BODY UNKNOWN 0 0 EXTERNAL SUBROUTINE GENERIC) (UNKNOWN 0 0 0
0 UNKNOWN ()) 114 0 (115 116) () 0 () () () 0 0)
16 'omp_set_schedule_8' 'omp_lib' '' 1 ((PROCEDURE UNKNOWN-INTENT
MODULE-PROC BODY UNKNOWN 0 0 EXTERNAL SUBROUTINE) (UNKNOWN 0 0 0 0
UNKNOWN ()) 117 0 (118 119) () 0 () () () 0 0)
120 'omp_test_lock' 'omp_lib' '' 1 ((PROCEDURE UNKNOWN-INTENT
MODULE-PROC BODY UNKNOWN 0 0 EXTERNAL FUNCTION) (LOGICAL 4 0 0 0 LOGICAL
()) 121 0 (122) () 120 () () () 0 0)
123 'omp_test_nest_lock' 'omp_lib' '' 1 ((PROCEDURE UNKNOWN-INTENT
MODULE-PROC BODY UNKNOWN 0 0 EXTERNAL FUNCTION) (INTEGER 4 0 0 0 INTEGER
()) 124 0 (125) () 123 () () () 0 0)
126 'omp_unset_lock' 'omp_lib' '' 1 ((PROCEDURE UNKNOWN-INTENT
MODULE-PROC BODY UNKNOWN 0 0 EXTERNAL SUBROUTINE) (UNKNOWN 0 0 0 0
UNKNOWN ()) 127 0 (128) () 0 () () () 0 0)
129 'omp_unset_nest_lock' 'omp_lib' '' 1 ((PROCEDURE UNKNOWN-INTENT
MODULE-PROC BODY UNKNOWN 0 0 EXTERNAL SUBROUTINE) (UNKNOWN 0 0 0 0
UNKNOWN ()) 130 0 (131) () 0 () () () 0 0)
132 'openmp_version' 'omp_lib' '' 1 ((PARAMETER UNKNOWN-INTENT
UNKNOWN-PROC UNKNOWN IMPLICIT-SAVE 0 0) (INTEGER 4 0 0 0 INTEGER ()) 0 0
() (CONSTANT (INTEGER 4 0 0 0 INTEGER ()) 0 '201107') () 0 () () () 0 0)
133 'test_fd' 'fdmodule' '' 1 ((PROCEDURE UNKNOWN-INTENT MODULE-PROC
DECL UNKNOWN 0 0 SUBROUTINE) (UNKNOWN 0 0 0 0 UNKNOWN ()) 134 0 (135 136)
() 0 () () () 0 0)
20 'f' '' '' 19 ((VARIABLE IN UNKNOWN-PROC UNKNOWN UNKNOWN 0 0 DIMENSION
DUMMY) (REAL 8 0 0 0 REAL ()) 0 0 () (1 0 ASSUMED_SHAPE (CONSTANT (
INTEGER 4 0 0 0 INTEGER ()) 0 '1') ()) 0 () () () 0 0)
21 'df' '' '' 19 ((VARIABLE OUT UNKNOWN-PROC UNKNOWN UNKNOWN 0 0
DIMENSION DUMMY) (REAL 8 0 0 0 REAL ()) 0 0 () (1 0 EXPLICIT (CONSTANT (
INTEGER 4 0 0 0 INTEGER ()) 0 '1') (FUNCTION (INTEGER 4 0 0 0 INTEGER ())
0 137 (('' (VARIABLE (REAL 8 0 0 0 REAL ()) 1 20 ((ARRAY (FULL 1 2)))))
('' ()) ('' ())) '' 0 'size')) 0 () () () 0 0)
25 'f' '' '' 24 ((VARIABLE IN UNKNOWN-PROC UNKNOWN UNKNOWN 0 0 DIMENSION
DUMMY) (REAL 8 0 0 0 REAL ()) 0 0 () (1 0 ASSUMED_SHAPE (CONSTANT (
INTEGER 4 0 0 0 INTEGER ()) 0 '1') ()) 0 () () () 0 0)
26 'df' '' '' 24 ((VARIABLE OUT UNKNOWN-PROC UNKNOWN UNKNOWN 0 0
DIMENSION DUMMY) (REAL 8 0 0 0 REAL ()) 0 0 () (1 0 EXPLICIT (CONSTANT (
INTEGER 4 0 0 0 INTEGER ()) 0 '1') (FUNCTION (INTEGER 4 0 0 0 INTEGER ())
0 138 (('' (VARIABLE (REAL 8 0 0 0 REAL ()) 1 25 ((ARRAY (FULL 1 2)))))
('' ()) ('' ())) '' 0 'size')) 0 () () () 0 0)
31 'lock' '' '' 30 ((VARIABLE INOUT UNKNOWN-PROC UNKNOWN UNKNOWN 0 0
DUMMY) (INTEGER 4 0 0 0 INTEGER ()) 0 0 () () 0 () () () 0 0)
34 'lock' '' '' 33 ((VARIABLE INOUT UNKNOWN-PROC UNKNOWN UNKNOWN 0 0
DUMMY) (INTEGER 8 0 0 0 INTEGER ()) 0 0 () () 0 () () () 0 0)
38 'level' '' '' 37 ((VARIABLE IN UNKNOWN-PROC UNKNOWN UNKNOWN 0 0 DUMMY)
(INTEGER 4 0 0 0 INTEGER ()) 0 0 () () 0 () () () 0 0)
40 'level' '' '' 39 ((VARIABLE IN UNKNOWN-PROC UNKNOWN UNKNOWN 0 0 DUMMY)
(INTEGER 8 0 0 0 INTEGER ()) 0 0 () () 0 () () () 0 0)
56 'kind' '' '' 55 ((VARIABLE OUT UNKNOWN-PROC UNKNOWN UNKNOWN 0 0 DUMMY)
(INTEGER 4 0 0 0 INTEGER ()) 0 0 () () 0 () () () 0 0)
57 'modifier' '' '' 55 ((VARIABLE OUT UNKNOWN-PROC UNKNOWN UNKNOWN 0 0
DUMMY) (INTEGER 4 0 0 0 INTEGER ()) 0 0 () () 0 () () () 0 0)
59 'kind' '' '' 58 ((VARIABLE OUT UNKNOWN-PROC UNKNOWN UNKNOWN 0 0 DUMMY)
(INTEGER 4 0 0 0 INTEGER ()) 0 0 () () 0 () () () 0 0)
60 'modifier' '' '' 58 ((VARIABLE OUT UNKNOWN-PROC UNKNOWN UNKNOWN 0 0
DUMMY) (INTEGER 8 0 0 0 INTEGER ()) 0 0 () () 0 () () () 0 0)
62 'level' '' '' 61 ((VARIABLE IN UNKNOWN-PROC UNKNOWN UNKNOWN 0 0 DUMMY)
(INTEGER 4 0 0 0 INTEGER ()) 0 0 () () 0 () () () 0 0)
64 'level' '' '' 63 ((VARIABLE IN UNKNOWN-PROC UNKNOWN UNKNOWN 0 0 DUMMY)
(INTEGER 8 0 0 0 INTEGER ()) 0 0 () () 0 () () () 0 0)
79 'lock' '' '' 78 ((VARIABLE OUT UNKNOWN-PROC UNKNOWN UNKNOWN 0 0 DUMMY)
(INTEGER 4 0 0 0 INTEGER ()) 0 0 () () 0 () () () 0 0)
82 'lock' '' '' 81 ((VARIABLE OUT UNKNOWN-PROC UNKNOWN UNKNOWN 0 0 DUMMY)
(INTEGER 8 0 0 0 INTEGER ()) 0 0 () () 0 () () () 0 0)
93 'set' '' '' 92 ((VARIABLE IN UNKNOWN-PROC UNKNOWN UNKNOWN 0 0 DUMMY)
(LOGICAL 4 0 0 0 LOGICAL ()) 0 0 () () 0 () () () 0 0)
95 'set' '' '' 94 ((VARIABLE IN UNKNOWN-PROC UNKNOWN UNKNOWN 0 0 DUMMY)
(LOGICAL 8 0 0 0 LOGICAL ()) 0 0 () () 0 () () () 0 0)
98 'lock' '' '' 97 ((VARIABLE INOUT UNKNOWN-PROC UNKNOWN UNKNOWN 0 0
DUMMY) (INTEGER 4 0 0 0 INTEGER ()) 0 0 () () 0 () () () 0 0)
100 'max_levels' '' '' 99 ((VARIABLE IN UNKNOWN-PROC UNKNOWN UNKNOWN 0 0
DUMMY) (INTEGER 4 0 0 0 INTEGER ()) 0 0 () () 0 () () () 0 0)
102 'max_levels' '' '' 101 ((VARIABLE IN UNKNOWN-PROC UNKNOWN UNKNOWN 0
0 DUMMY) (INTEGER 8 0 0 0 INTEGER ()) 0 0 () () 0 () () () 0 0)
105 'lock' '' '' 104 ((VARIABLE INOUT UNKNOWN-PROC UNKNOWN UNKNOWN 0 0
DUMMY) (INTEGER 8 0 0 0 INTEGER ()) 0 0 () () 0 () () () 0 0)
107 'set' '' '' 106 ((VARIABLE IN UNKNOWN-PROC UNKNOWN UNKNOWN 0 0 DUMMY)
(LOGICAL 4 0 0 0 LOGICAL ()) 0 0 () () 0 () () () 0 0)
109 'set' '' '' 108 ((VARIABLE IN UNKNOWN-PROC UNKNOWN UNKNOWN 0 0 DUMMY)
(LOGICAL 8 0 0 0 LOGICAL ()) 0 0 () () 0 () () () 0 0)
111 'set' '' '' 110 ((VARIABLE IN UNKNOWN-PROC UNKNOWN UNKNOWN 0 0 DUMMY)
(INTEGER 4 0 0 0 INTEGER ()) 0 0 () () 0 () () () 0 0)
113 'set' '' '' 112 ((VARIABLE IN UNKNOWN-PROC UNKNOWN UNKNOWN 0 0 DUMMY)
(INTEGER 8 0 0 0 INTEGER ()) 0 0 () () 0 () () () 0 0)
115 'kind' '' '' 114 ((VARIABLE IN UNKNOWN-PROC UNKNOWN UNKNOWN 0 0
DUMMY) (INTEGER 4 0 0 0 INTEGER ()) 0 0 () () 0 () () () 0 0)
116 'modifier' '' '' 114 ((VARIABLE IN UNKNOWN-PROC UNKNOWN UNKNOWN 0 0
DUMMY) (INTEGER 4 0 0 0 INTEGER ()) 0 0 () () 0 () () () 0 0)
118 'kind' '' '' 117 ((VARIABLE IN UNKNOWN-PROC UNKNOWN UNKNOWN 0 0
DUMMY) (INTEGER 4 0 0 0 INTEGER ()) 0 0 () () 0 () () () 0 0)
119 'modifier' '' '' 117 ((VARIABLE IN UNKNOWN-PROC UNKNOWN UNKNOWN 0 0
DUMMY) (INTEGER 8 0 0 0 INTEGER ()) 0 0 () () 0 () () () 0 0)
122 'lock' '' '' 121 ((VARIABLE INOUT UNKNOWN-PROC UNKNOWN UNKNOWN 0 0
DUMMY) (INTEGER 4 0 0 0 INTEGER ()) 0 0 () () 0 () () () 0 0)
125 'lock' '' '' 124 ((VARIABLE INOUT UNKNOWN-PROC UNKNOWN UNKNOWN 0 0
DUMMY) (INTEGER 8 0 0 0 INTEGER ()) 0 0 () () 0 () () () 0 0)
128 'lock' '' '' 127 ((VARIABLE INOUT UNKNOWN-PROC UNKNOWN UNKNOWN 0 0
DUMMY) (INTEGER 4 0 0 0 INTEGER ()) 0 0 () () 0 () () () 0 0)
131 'lock' '' '' 130 ((VARIABLE INOUT UNKNOWN-PROC UNKNOWN UNKNOWN 0 0
DUMMY) (INTEGER 8 0 0 0 INTEGER ()) 0 0 () () 0 () () () 0 0)
135 'alpha' '' '' 134 ((VARIABLE IN UNKNOWN-PROC UNKNOWN UNKNOWN 0 0
DUMMY) (REAL 8 0 0 0 REAL ()) 0 0 () () 0 () () () 0 0)
136 'error' '' '' 134 ((VARIABLE OUT UNKNOWN-PROC UNKNOWN UNKNOWN 0 0
DIMENSION DUMMY) (REAL 8 0 0 0 REAL ()) 0 0 () (1 0 EXPLICIT (CONSTANT (
INTEGER 4 0 0 0 INTEGER ()) 0 '1') (CONSTANT (INTEGER 4 0 0 0 INTEGER ())
0 '2')) 0 () () () 0 0)
137 'size' '(intrinsic)' '' 19 ((PROCEDURE UNKNOWN-INTENT UNKNOWN-PROC
UNKNOWN UNKNOWN 0 0 FUNCTION) (UNKNOWN 0 0 0 0 UNKNOWN ()) 0 0 () () 137
() () () 0 0)
138 'size' '(intrinsic)' '' 24 ((PROCEDURE UNKNOWN-INTENT UNKNOWN-PROC
UNKNOWN UNKNOWN 0 0 FUNCTION) (UNKNOWN 0 0 0 0 UNKNOWN ()) 0 0 () () 138
() () () 0 0)
)

('cfd4' 0 18 'dx' 0 22 'fd2' 0 23 'fdmodule' 0 27 'n' 0 28
'omp_destroy_lock' 0 29 'omp_destroy_nest_lock' 0 32
'omp_get_active_level' 0 35 'omp_get_ancestor_thread_num' 0 3
'omp_get_ancestor_thread_num_8' 0 2 'omp_get_dynamic' 0 41 'omp_get_level'
0 43 'omp_get_max_active_levels' 0 45 'omp_get_max_threads' 0 47
'omp_get_nested' 0 49 'omp_get_num_procs' 0 51 'omp_get_num_threads' 0
53 'omp_get_schedule' 0 5 'omp_get_schedule_8' 0 4 'omp_get_team_size' 0
7 'omp_get_team_size_8' 0 6 'omp_get_thread_limit' 0 65
'omp_get_thread_num' 0 67 'omp_get_wtick' 0 69 'omp_get_wtime' 0 71
'omp_in_final' 0 73 'omp_in_parallel' 0 75 'omp_init_lock' 0 77
'omp_init_nest_lock' 0 80 'omp_lib' 0 83 'omp_lib_kinds' 0 84
'omp_lock_kind' 0 85 'omp_nest_lock_kind' 0 86 'omp_sched_auto' 0 87
'omp_sched_dynamic' 0 88 'omp_sched_guided' 0 89 'omp_sched_kind' 0 90
'omp_sched_static' 0 91 'omp_set_dynamic' 0 9 'omp_set_dynamic_8' 0 8
'omp_set_lock' 0 96 'omp_set_max_active_levels' 0 11
'omp_set_max_active_levels_8' 0 10 'omp_set_nest_lock' 0 103
'omp_set_nested' 0 13 'omp_set_nested_8' 0 12 'omp_set_num_threads' 0 15
'omp_set_num_threads_8' 0 14 'omp_set_schedule' 0 17 'omp_set_schedule_8'
0 16 'omp_test_lock' 0 120 'omp_test_nest_lock' 0 123 'omp_unset_lock' 0
126 'omp_unset_nest_lock' 0 129 'openmp_version' 0 132 'test_fd' 0 133)
