GFORTRAN module version '10' created from hw41.f90
MD5:99fc346e205d3f6e7e327c35a76ed93b -- If you edit this, you'll get what you deserve.

(() () () () () () () () () () () () () () () () () () () () () () ()
() () () ())

()

(('omp_get_ancestor_thread_num' 'omp_lib' 2 3) ('omp_get_schedule'
'omp_lib' 4 5) ('omp_get_team_size' 'omp_lib' 6 7) ('omp_set_dynamic'
'omp_lib' 8 9) ('omp_set_max_active_levels' 'omp_lib' 10 11) (
'omp_set_nested' 'omp_lib' 12 13) ('omp_set_num_threads' 'omp_lib' 14 15)
('omp_set_schedule' 'omp_lib' 16 17))

()

()

()

(18 'cfd4' 'fdmodule' '' 1 ((PROCEDURE UNKNOWN-INTENT MODULE-PROC DECL
UNKNOWN 0 0 SUBROUTINE ALWAYS_EXPLICIT) (UNKNOWN 0 0 0 0 UNKNOWN ()) 19
0 (20 21) () 0 () () () 0 0)
22 'dx' 'fdmodule' '' 1 ((VARIABLE UNKNOWN-INTENT UNKNOWN-PROC UNKNOWN
EXPLICIT-SAVE 0 0) (REAL 8 0 0 0 REAL ()) 0 0 () () 0 () () () 0 0)
23 'dx1' 'fdmodule2d' '' 1 ((VARIABLE UNKNOWN-INTENT UNKNOWN-PROC
UNKNOWN EXPLICIT-SAVE 0 0) (REAL 8 0 0 0 REAL ()) 0 0 () () 0 () () () 0
0)
24 'dx2' 'fdmodule2d' '' 1 ((VARIABLE UNKNOWN-INTENT UNKNOWN-PROC
UNKNOWN EXPLICIT-SAVE 0 0) (REAL 8 0 0 0 REAL ()) 0 0 () () 0 () () () 0
0)
25 'fd2' 'fdmodule' '' 1 ((PROCEDURE UNKNOWN-INTENT MODULE-PROC DECL
UNKNOWN 0 0 SUBROUTINE IMPLICIT_PURE ALWAYS_EXPLICIT) (UNKNOWN 0 0 0 0
UNKNOWN ()) 26 0 (27 28) () 0 () () () 0 0)
29 'fdmodule' 'fdmodule' '' 1 ((MODULE UNKNOWN-INTENT UNKNOWN-PROC
UNKNOWN UNKNOWN 0 0) (UNKNOWN 0 0 0 0 UNKNOWN ()) 0 0 () () 0 () () () 0
0)
30 'fdmodule2d' 'fdmodule2d' '' 1 ((MODULE UNKNOWN-INTENT UNKNOWN-PROC
UNKNOWN UNKNOWN 0 0) (UNKNOWN 0 0 0 0 UNKNOWN ()) 0 0 () () 0 () () () 0
0)
31 'grad' 'fdmodule2d' '' 1 ((PROCEDURE UNKNOWN-INTENT MODULE-PROC DECL
UNKNOWN 0 0 SUBROUTINE ALWAYS_EXPLICIT) (UNKNOWN 0 0 0 0 UNKNOWN ()) 32
0 (33 34 35 36 37) () 0 () () () 0 0)
38 'grad_omp' 'fdmodule2d' '' 1 ((PROCEDURE UNKNOWN-INTENT MODULE-PROC
DECL UNKNOWN 0 0 SUBROUTINE ALWAYS_EXPLICIT) (UNKNOWN 0 0 0 0 UNKNOWN ())
39 0 (40 41 42 43 44) () 0 () () () 0 0)
45 'n' 'fdmodule' '' 1 ((VARIABLE UNKNOWN-INTENT UNKNOWN-PROC UNKNOWN
EXPLICIT-SAVE 0 0) (INTEGER 4 0 0 0 INTEGER ()) 0 0 () () 0 () () () 0 0)
46 'n1' 'fdmodule2d' '' 1 ((VARIABLE UNKNOWN-INTENT UNKNOWN-PROC UNKNOWN
EXPLICIT-SAVE 0 0) (INTEGER 4 0 0 0 INTEGER ()) 0 0 () () 0 () () () 0 0)
47 'n2' 'fdmodule2d' '' 1 ((VARIABLE UNKNOWN-INTENT UNKNOWN-PROC UNKNOWN
EXPLICIT-SAVE 0 0) (INTEGER 4 0 0 0 INTEGER ()) 0 0 () () 0 () () () 0 0)
48 'numthreads' 'fdmodule2d' '' 1 ((VARIABLE UNKNOWN-INTENT UNKNOWN-PROC
UNKNOWN EXPLICIT-SAVE 0 0) (INTEGER 4 0 0 0 INTEGER ()) 0 0 () () 0 () ()
() 0 0)
49 'omp_destroy_lock' 'omp_lib' '' 1 ((PROCEDURE UNKNOWN-INTENT
MODULE-PROC BODY UNKNOWN 0 0 EXTERNAL SUBROUTINE) (UNKNOWN 0 0 0 0
UNKNOWN ()) 50 0 (51) () 0 () () () 0 0)
52 'omp_destroy_nest_lock' 'omp_lib' '' 1 ((PROCEDURE UNKNOWN-INTENT
MODULE-PROC BODY UNKNOWN 0 0 EXTERNAL SUBROUTINE) (UNKNOWN 0 0 0 0
UNKNOWN ()) 53 0 (54) () 0 () () () 0 0)
55 'omp_get_active_level' 'omp_lib' '' 1 ((PROCEDURE UNKNOWN-INTENT
MODULE-PROC BODY UNKNOWN 0 0 EXTERNAL FUNCTION) (INTEGER 4 0 0 0 INTEGER
()) 56 0 () () 55 () () () 0 0)
3 'omp_get_ancestor_thread_num' 'omp_lib' '' 1 ((PROCEDURE
UNKNOWN-INTENT MODULE-PROC BODY UNKNOWN 0 0 EXTERNAL FUNCTION GENERIC) (
INTEGER 4 0 0 0 INTEGER ()) 57 0 (58) () 3 () () () 0 0)
2 'omp_get_ancestor_thread_num_8' 'omp_lib' '' 1 ((PROCEDURE
UNKNOWN-INTENT MODULE-PROC BODY UNKNOWN 0 0 EXTERNAL FUNCTION) (INTEGER
4 0 0 0 INTEGER ()) 59 0 (60) () 2 () () () 0 0)
61 'omp_get_dynamic' 'omp_lib' '' 1 ((PROCEDURE UNKNOWN-INTENT
MODULE-PROC BODY UNKNOWN 0 0 EXTERNAL FUNCTION) (LOGICAL 4 0 0 0 LOGICAL
()) 62 0 () () 61 () () () 0 0)
63 'omp_get_level' 'omp_lib' '' 1 ((PROCEDURE UNKNOWN-INTENT MODULE-PROC
BODY UNKNOWN 0 0 EXTERNAL FUNCTION) (INTEGER 4 0 0 0 INTEGER ()) 64 0 ()
() 63 () () () 0 0)
65 'omp_get_max_active_levels' 'omp_lib' '' 1 ((PROCEDURE UNKNOWN-INTENT
MODULE-PROC BODY UNKNOWN 0 0 EXTERNAL FUNCTION) (INTEGER 4 0 0 0 INTEGER
()) 66 0 () () 65 () () () 0 0)
67 'omp_get_max_threads' 'omp_lib' '' 1 ((PROCEDURE UNKNOWN-INTENT
MODULE-PROC BODY UNKNOWN 0 0 EXTERNAL FUNCTION) (INTEGER 4 0 0 0 INTEGER
()) 68 0 () () 67 () () () 0 0)
69 'omp_get_nested' 'omp_lib' '' 1 ((PROCEDURE UNKNOWN-INTENT
MODULE-PROC BODY UNKNOWN 0 0 EXTERNAL FUNCTION) (LOGICAL 4 0 0 0 LOGICAL
()) 70 0 () () 69 () () () 0 0)
71 'omp_get_num_procs' 'omp_lib' '' 1 ((PROCEDURE UNKNOWN-INTENT
MODULE-PROC BODY UNKNOWN 0 0 EXTERNAL FUNCTION) (INTEGER 4 0 0 0 INTEGER
()) 72 0 () () 71 () () () 0 0)
73 'omp_get_num_threads' 'omp_lib' '' 1 ((PROCEDURE UNKNOWN-INTENT
MODULE-PROC BODY UNKNOWN 0 0 EXTERNAL FUNCTION) (INTEGER 4 0 0 0 INTEGER
()) 74 0 () () 73 () () () 0 0)
5 'omp_get_schedule' 'omp_lib' '' 1 ((PROCEDURE UNKNOWN-INTENT
MODULE-PROC BODY UNKNOWN 0 0 EXTERNAL SUBROUTINE GENERIC) (UNKNOWN 0 0 0
0 UNKNOWN ()) 75 0 (76 77) () 0 () () () 0 0)
4 'omp_get_schedule_8' 'omp_lib' '' 1 ((PROCEDURE UNKNOWN-INTENT
MODULE-PROC BODY UNKNOWN 0 0 EXTERNAL SUBROUTINE) (UNKNOWN 0 0 0 0
UNKNOWN ()) 78 0 (79 80) () 0 () () () 0 0)
7 'omp_get_team_size' 'omp_lib' '' 1 ((PROCEDURE UNKNOWN-INTENT
MODULE-PROC BODY UNKNOWN 0 0 EXTERNAL FUNCTION GENERIC) (INTEGER 4 0 0 0
INTEGER ()) 81 0 (82) () 7 () () () 0 0)
6 'omp_get_team_size_8' 'omp_lib' '' 1 ((PROCEDURE UNKNOWN-INTENT
MODULE-PROC BODY UNKNOWN 0 0 EXTERNAL FUNCTION) (INTEGER 4 0 0 0 INTEGER
()) 83 0 (84) () 6 () () () 0 0)
85 'omp_get_thread_limit' 'omp_lib' '' 1 ((PROCEDURE UNKNOWN-INTENT
MODULE-PROC BODY UNKNOWN 0 0 EXTERNAL FUNCTION) (INTEGER 4 0 0 0 INTEGER
()) 86 0 () () 85 () () () 0 0)
87 'omp_get_thread_num' 'omp_lib' '' 1 ((PROCEDURE UNKNOWN-INTENT
MODULE-PROC BODY UNKNOWN 0 0 EXTERNAL FUNCTION) (INTEGER 4 0 0 0 INTEGER
()) 88 0 () () 87 () () () 0 0)
89 'omp_get_wtick' 'omp_lib' '' 1 ((PROCEDURE UNKNOWN-INTENT MODULE-PROC
BODY UNKNOWN 0 0 EXTERNAL FUNCTION) (REAL 8 0 0 0 REAL ()) 90 0 () () 89
() () () 0 0)
91 'omp_get_wtime' 'omp_lib' '' 1 ((PROCEDURE UNKNOWN-INTENT MODULE-PROC
BODY UNKNOWN 0 0 EXTERNAL FUNCTION) (REAL 8 0 0 0 REAL ()) 92 0 () () 91
() () () 0 0)
93 'omp_in_final' 'omp_lib' '' 1 ((PROCEDURE UNKNOWN-INTENT MODULE-PROC
BODY UNKNOWN 0 0 EXTERNAL FUNCTION) (LOGICAL 4 0 0 0 LOGICAL ()) 94 0 ()
() 93 () () () 0 0)
95 'omp_in_parallel' 'omp_lib' '' 1 ((PROCEDURE UNKNOWN-INTENT
MODULE-PROC BODY UNKNOWN 0 0 EXTERNAL FUNCTION) (LOGICAL 4 0 0 0 LOGICAL
()) 96 0 () () 95 () () () 0 0)
97 'omp_init_lock' 'omp_lib' '' 1 ((PROCEDURE UNKNOWN-INTENT MODULE-PROC
BODY UNKNOWN 0 0 EXTERNAL SUBROUTINE) (UNKNOWN 0 0 0 0 UNKNOWN ()) 98 0
(99) () 0 () () () 0 0)
100 'omp_init_nest_lock' 'omp_lib' '' 1 ((PROCEDURE UNKNOWN-INTENT
MODULE-PROC BODY UNKNOWN 0 0 EXTERNAL SUBROUTINE) (UNKNOWN 0 0 0 0
UNKNOWN ()) 101 0 (102) () 0 () () () 0 0)
103 'omp_lib' 'omp_lib' '' 1 ((MODULE UNKNOWN-INTENT UNKNOWN-PROC
UNKNOWN UNKNOWN 0 0) (UNKNOWN 0 0 0 0 UNKNOWN ()) 0 0 () () 0 () () () 0
0)
104 'omp_lib_kinds' 'omp_lib_kinds' '' 1 ((MODULE UNKNOWN-INTENT
UNKNOWN-PROC UNKNOWN UNKNOWN 0 0) (UNKNOWN 0 0 0 0 UNKNOWN ()) 0 0 () ()
0 () () () 0 0)
105 'omp_lock_kind' 'omp_lib_kinds' '' 1 ((PARAMETER UNKNOWN-INTENT
UNKNOWN-PROC UNKNOWN IMPLICIT-SAVE 0 0) (INTEGER 4 0 0 0 INTEGER ()) 0 0
() (CONSTANT (INTEGER 4 0 0 0 INTEGER ()) 0 '4') () 0 () () () 0 0)
106 'omp_nest_lock_kind' 'omp_lib_kinds' '' 1 ((PARAMETER UNKNOWN-INTENT
UNKNOWN-PROC UNKNOWN IMPLICIT-SAVE 0 0) (INTEGER 4 0 0 0 INTEGER ()) 0 0
() (CONSTANT (INTEGER 4 0 0 0 INTEGER ()) 0 '8') () 0 () () () 0 0)
107 'omp_sched_auto' 'omp_lib' '' 1 ((PARAMETER UNKNOWN-INTENT
UNKNOWN-PROC UNKNOWN IMPLICIT-SAVE 0 0) (INTEGER 4 0 0 0 INTEGER ()) 0 0
() (CONSTANT (INTEGER 4 0 0 0 INTEGER ()) 0 '4') () 0 () () () 0 0)
108 'omp_sched_dynamic' 'omp_lib' '' 1 ((PARAMETER UNKNOWN-INTENT
UNKNOWN-PROC UNKNOWN IMPLICIT-SAVE 0 0) (INTEGER 4 0 0 0 INTEGER ()) 0 0
() (CONSTANT (INTEGER 4 0 0 0 INTEGER ()) 0 '2') () 0 () () () 0 0)
109 'omp_sched_guided' 'omp_lib' '' 1 ((PARAMETER UNKNOWN-INTENT
UNKNOWN-PROC UNKNOWN IMPLICIT-SAVE 0 0) (INTEGER 4 0 0 0 INTEGER ()) 0 0
() (CONSTANT (INTEGER 4 0 0 0 INTEGER ()) 0 '3') () 0 () () () 0 0)
110 'omp_sched_kind' 'omp_lib_kinds' '' 1 ((PARAMETER UNKNOWN-INTENT
UNKNOWN-PROC UNKNOWN IMPLICIT-SAVE 0 0) (INTEGER 4 0 0 0 INTEGER ()) 0 0
() (CONSTANT (INTEGER 4 0 0 0 INTEGER ()) 0 '4') () 0 () () () 0 0)
111 'omp_sched_static' 'omp_lib' '' 1 ((PARAMETER UNKNOWN-INTENT
UNKNOWN-PROC UNKNOWN IMPLICIT-SAVE 0 0) (INTEGER 4 0 0 0 INTEGER ()) 0 0
() (CONSTANT (INTEGER 4 0 0 0 INTEGER ()) 0 '1') () 0 () () () 0 0)
9 'omp_set_dynamic' 'omp_lib' '' 1 ((PROCEDURE UNKNOWN-INTENT
MODULE-PROC BODY UNKNOWN 0 0 EXTERNAL SUBROUTINE GENERIC) (UNKNOWN 0 0 0
0 UNKNOWN ()) 112 0 (113) () 0 () () () 0 0)
8 'omp_set_dynamic_8' 'omp_lib' '' 1 ((PROCEDURE UNKNOWN-INTENT
MODULE-PROC BODY UNKNOWN 0 0 EXTERNAL SUBROUTINE) (UNKNOWN 0 0 0 0
UNKNOWN ()) 114 0 (115) () 0 () () () 0 0)
116 'omp_set_lock' 'omp_lib' '' 1 ((PROCEDURE UNKNOWN-INTENT MODULE-PROC
BODY UNKNOWN 0 0 EXTERNAL SUBROUTINE) (UNKNOWN 0 0 0 0 UNKNOWN ()) 117 0
(118) () 0 () () () 0 0)
11 'omp_set_max_active_levels' 'omp_lib' '' 1 ((PROCEDURE UNKNOWN-INTENT
MODULE-PROC BODY UNKNOWN 0 0 EXTERNAL SUBROUTINE GENERIC) (UNKNOWN 0 0 0
0 UNKNOWN ()) 119 0 (120) () 0 () () () 0 0)
10 'omp_set_max_active_levels_8' 'omp_lib' '' 1 ((PROCEDURE
UNKNOWN-INTENT MODULE-PROC BODY UNKNOWN 0 0 EXTERNAL SUBROUTINE) (
UNKNOWN 0 0 0 0 UNKNOWN ()) 121 0 (122) () 0 () () () 0 0)
123 'omp_set_nest_lock' 'omp_lib' '' 1 ((PROCEDURE UNKNOWN-INTENT
MODULE-PROC BODY UNKNOWN 0 0 EXTERNAL SUBROUTINE) (UNKNOWN 0 0 0 0
UNKNOWN ()) 124 0 (125) () 0 () () () 0 0)
13 'omp_set_nested' 'omp_lib' '' 1 ((PROCEDURE UNKNOWN-INTENT
MODULE-PROC BODY UNKNOWN 0 0 EXTERNAL SUBROUTINE GENERIC) (UNKNOWN 0 0 0
0 UNKNOWN ()) 126 0 (127) () 0 () () () 0 0)
12 'omp_set_nested_8' 'omp_lib' '' 1 ((PROCEDURE UNKNOWN-INTENT
MODULE-PROC BODY UNKNOWN 0 0 EXTERNAL SUBROUTINE) (UNKNOWN 0 0 0 0
UNKNOWN ()) 128 0 (129) () 0 () () () 0 0)
15 'omp_set_num_threads' 'omp_lib' '' 1 ((PROCEDURE UNKNOWN-INTENT
MODULE-PROC BODY UNKNOWN 0 0 EXTERNAL SUBROUTINE GENERIC) (UNKNOWN 0 0 0
0 UNKNOWN ()) 130 0 (131) () 0 () () () 0 0)
14 'omp_set_num_threads_8' 'omp_lib' '' 1 ((PROCEDURE UNKNOWN-INTENT
MODULE-PROC BODY UNKNOWN 0 0 EXTERNAL SUBROUTINE) (UNKNOWN 0 0 0 0
UNKNOWN ()) 132 0 (133) () 0 () () () 0 0)
17 'omp_set_schedule' 'omp_lib' '' 1 ((PROCEDURE UNKNOWN-INTENT
MODULE-PROC BODY UNKNOWN 0 0 EXTERNAL SUBROUTINE GENERIC) (UNKNOWN 0 0 0
0 UNKNOWN ()) 134 0 (135 136) () 0 () () () 0 0)
16 'omp_set_schedule_8' 'omp_lib' '' 1 ((PROCEDURE UNKNOWN-INTENT
MODULE-PROC BODY UNKNOWN 0 0 EXTERNAL SUBROUTINE) (UNKNOWN 0 0 0 0
UNKNOWN ()) 137 0 (138 139) () 0 () () () 0 0)
140 'omp_test_lock' 'omp_lib' '' 1 ((PROCEDURE UNKNOWN-INTENT
MODULE-PROC BODY UNKNOWN 0 0 EXTERNAL FUNCTION) (LOGICAL 4 0 0 0 LOGICAL
()) 141 0 (142) () 140 () () () 0 0)
143 'omp_test_nest_lock' 'omp_lib' '' 1 ((PROCEDURE UNKNOWN-INTENT
MODULE-PROC BODY UNKNOWN 0 0 EXTERNAL FUNCTION) (INTEGER 4 0 0 0 INTEGER
()) 144 0 (145) () 143 () () () 0 0)
146 'omp_unset_lock' 'omp_lib' '' 1 ((PROCEDURE UNKNOWN-INTENT
MODULE-PROC BODY UNKNOWN 0 0 EXTERNAL SUBROUTINE) (UNKNOWN 0 0 0 0
UNKNOWN ()) 147 0 (148) () 0 () () () 0 0)
149 'omp_unset_nest_lock' 'omp_lib' '' 1 ((PROCEDURE UNKNOWN-INTENT
MODULE-PROC BODY UNKNOWN 0 0 EXTERNAL SUBROUTINE) (UNKNOWN 0 0 0 0
UNKNOWN ()) 150 0 (151) () 0 () () () 0 0)
152 'openmp_version' 'omp_lib' '' 1 ((PARAMETER UNKNOWN-INTENT
UNKNOWN-PROC UNKNOWN IMPLICIT-SAVE 0 0) (INTEGER 4 0 0 0 INTEGER ()) 0 0
() (CONSTANT (INTEGER 4 0 0 0 INTEGER ()) 0 '201107') () 0 () () () 0 0)
153 'test_fd' 'fdmodule' '' 1 ((PROCEDURE UNKNOWN-INTENT MODULE-PROC
DECL UNKNOWN 0 0 SUBROUTINE) (UNKNOWN 0 0 0 0 UNKNOWN ()) 154 0 (155 156)
() 0 () () () 0 0)
157 'test_grad' 'fdmodule2d' '' 1 ((PROCEDURE UNKNOWN-INTENT MODULE-PROC
DECL UNKNOWN 0 0 SUBROUTINE) (UNKNOWN 0 0 0 0 UNKNOWN ()) 158 0 (159 160)
() 0 () () () 0 0)
161 'test_grad_omp' 'fdmodule2d' '' 1 ((PROCEDURE UNKNOWN-INTENT
MODULE-PROC DECL UNKNOWN 0 0 SUBROUTINE) (UNKNOWN 0 0 0 0 UNKNOWN ())
162 0 (163 164) () 0 () () () 0 0)
20 'f' '' '' 19 ((VARIABLE IN UNKNOWN-PROC UNKNOWN UNKNOWN 0 0 DIMENSION
DUMMY) (REAL 8 0 0 0 REAL ()) 0 0 () (1 0 ASSUMED_SHAPE (CONSTANT (
INTEGER 4 0 0 0 INTEGER ()) 0 '1') ()) 0 () () () 0 0)
21 'df' '' '' 19 ((VARIABLE OUT UNKNOWN-PROC UNKNOWN UNKNOWN 0 0
DIMENSION DUMMY) (REAL 8 0 0 0 REAL ()) 0 0 () (1 0 EXPLICIT (CONSTANT (
INTEGER 4 0 0 0 INTEGER ()) 0 '1') (FUNCTION (INTEGER 4 0 0 0 INTEGER ())
0 165 (('' (VARIABLE (REAL 8 0 0 0 REAL ()) 1 20 ((ARRAY (FULL 1 2)))))
('' ()) ('' ())) '' 0 'size')) 0 () () () 0 0)
27 'f' '' '' 26 ((VARIABLE IN UNKNOWN-PROC UNKNOWN UNKNOWN 0 0 DIMENSION
DUMMY) (REAL 8 0 0 0 REAL ()) 0 0 () (1 0 ASSUMED_SHAPE (CONSTANT (
INTEGER 4 0 0 0 INTEGER ()) 0 '1') ()) 0 () () () 0 0)
28 'df' '' '' 26 ((VARIABLE OUT UNKNOWN-PROC UNKNOWN UNKNOWN 0 0
DIMENSION DUMMY) (REAL 8 0 0 0 REAL ()) 0 0 () (1 0 EXPLICIT (CONSTANT (
INTEGER 4 0 0 0 INTEGER ()) 0 '1') (FUNCTION (INTEGER 4 0 0 0 INTEGER ())
0 166 (('' (VARIABLE (REAL 8 0 0 0 REAL ()) 1 27 ((ARRAY (FULL 1 2)))))
('' ()) ('' ())) '' 0 'size')) 0 () () () 0 0)
33 'f' '' '' 32 ((VARIABLE IN UNKNOWN-PROC UNKNOWN UNKNOWN 0 0 DIMENSION
DUMMY) (REAL 8 0 0 0 REAL ()) 0 0 () (2 0 ASSUMED_SHAPE (CONSTANT (
INTEGER 4 0 0 0 INTEGER ()) 0 '1') () (CONSTANT (INTEGER 4 0 0 0 INTEGER
()) 0 '1') ()) 0 () () () 0 0)
34 'df1' '' '' 32 ((VARIABLE OUT UNKNOWN-PROC UNKNOWN UNKNOWN 0 0
DIMENSION DUMMY) (REAL 8 0 0 0 REAL ()) 0 0 () (2 0 EXPLICIT (CONSTANT (
INTEGER 4 0 0 0 INTEGER ()) 0 '1') (FUNCTION (INTEGER 4 0 0 0 INTEGER ())
0 167 (('' (VARIABLE (REAL 8 0 0 0 REAL ()) 2 33 ((ARRAY (FULL 2 2 2)))))
('' (CONSTANT (INTEGER 4 0 0 0 INTEGER ()) 0 '1')) ('' ())) '' 0 'size')
(CONSTANT (INTEGER 4 0 0 0 INTEGER ()) 0 '1') (FUNCTION (INTEGER 4 0 0 0
INTEGER ()) 0 167 (('' (VARIABLE (REAL 8 0 0 0 REAL ()) 2 33 ((ARRAY (
FULL 2 2 2))))) ('' (CONSTANT (INTEGER 4 0 0 0 INTEGER ()) 0 '2')) ('' ()))
'' 0 'size')) 0 () () () 0 0)
35 'df2' '' '' 32 ((VARIABLE OUT UNKNOWN-PROC UNKNOWN UNKNOWN 0 0
DIMENSION DUMMY) (REAL 8 0 0 0 REAL ()) 0 0 () (2 0 EXPLICIT (CONSTANT (
INTEGER 4 0 0 0 INTEGER ()) 0 '1') (FUNCTION (INTEGER 4 0 0 0 INTEGER ())
0 167 (('' (VARIABLE (REAL 8 0 0 0 REAL ()) 2 33 ((ARRAY (FULL 2 2 2)))))
('' (CONSTANT (INTEGER 4 0 0 0 INTEGER ()) 0 '1')) ('' ())) '' 0 'size')
(CONSTANT (INTEGER 4 0 0 0 INTEGER ()) 0 '1') (FUNCTION (INTEGER 4 0 0 0
INTEGER ()) 0 167 (('' (VARIABLE (REAL 8 0 0 0 REAL ()) 2 33 ((ARRAY (
FULL 2 2 2))))) ('' (CONSTANT (INTEGER 4 0 0 0 INTEGER ()) 0 '2')) ('' ()))
'' 0 'size')) 0 () () () 0 0)
36 'df_amp' '' '' 32 ((VARIABLE OUT UNKNOWN-PROC UNKNOWN UNKNOWN 0 0
DIMENSION DUMMY) (REAL 8 0 0 0 REAL ()) 0 0 () (2 0 EXPLICIT (CONSTANT (
INTEGER 4 0 0 0 INTEGER ()) 0 '1') (FUNCTION (INTEGER 4 0 0 0 INTEGER ())
0 167 (('' (VARIABLE (REAL 8 0 0 0 REAL ()) 2 33 ((ARRAY (FULL 2 2 2)))))
('' (CONSTANT (INTEGER 4 0 0 0 INTEGER ()) 0 '1')) ('' ())) '' 0 'size')
(CONSTANT (INTEGER 4 0 0 0 INTEGER ()) 0 '1') (FUNCTION (INTEGER 4 0 0 0
INTEGER ()) 0 167 (('' (VARIABLE (REAL 8 0 0 0 REAL ()) 2 33 ((ARRAY (
FULL 2 2 2))))) ('' (CONSTANT (INTEGER 4 0 0 0 INTEGER ()) 0 '2')) ('' ()))
'' 0 'size')) 0 () () () 0 0)
37 'df_max' '' '' 32 ((VARIABLE OUT UNKNOWN-PROC UNKNOWN UNKNOWN 0 0
DUMMY) (REAL 8 0 0 0 REAL ()) 0 0 () () 0 () () () 0 0)
40 'f' '' '' 39 ((VARIABLE IN UNKNOWN-PROC UNKNOWN UNKNOWN 0 0 DIMENSION
DUMMY) (REAL 8 0 0 0 REAL ()) 0 0 () (2 0 ASSUMED_SHAPE (CONSTANT (
INTEGER 4 0 0 0 INTEGER ()) 0 '1') () (CONSTANT (INTEGER 4 0 0 0 INTEGER
()) 0 '1') ()) 0 () () () 0 0)
41 'df1' '' '' 39 ((VARIABLE OUT UNKNOWN-PROC UNKNOWN UNKNOWN 0 0
DIMENSION DUMMY) (REAL 8 0 0 0 REAL ()) 0 0 () (2 0 EXPLICIT (CONSTANT (
INTEGER 4 0 0 0 INTEGER ()) 0 '1') (FUNCTION (INTEGER 4 0 0 0 INTEGER ())
0 168 (('' (VARIABLE (REAL 8 0 0 0 REAL ()) 2 40 ((ARRAY (FULL 2 2 2)))))
('' (CONSTANT (INTEGER 4 0 0 0 INTEGER ()) 0 '1')) ('' ())) '' 0 'size')
(CONSTANT (INTEGER 4 0 0 0 INTEGER ()) 0 '1') (FUNCTION (INTEGER 4 0 0 0
INTEGER ()) 0 168 (('' (VARIABLE (REAL 8 0 0 0 REAL ()) 2 40 ((ARRAY (
FULL 2 2 2))))) ('' (CONSTANT (INTEGER 4 0 0 0 INTEGER ()) 0 '2')) ('' ()))
'' 0 'size')) 0 () () () 0 0)
42 'df2' '' '' 39 ((VARIABLE OUT UNKNOWN-PROC UNKNOWN UNKNOWN 0 0
DIMENSION DUMMY) (REAL 8 0 0 0 REAL ()) 0 0 () (2 0 EXPLICIT (CONSTANT (
INTEGER 4 0 0 0 INTEGER ()) 0 '1') (FUNCTION (INTEGER 4 0 0 0 INTEGER ())
0 168 (('' (VARIABLE (REAL 8 0 0 0 REAL ()) 2 40 ((ARRAY (FULL 2 2 2)))))
('' (CONSTANT (INTEGER 4 0 0 0 INTEGER ()) 0 '1')) ('' ())) '' 0 'size')
(CONSTANT (INTEGER 4 0 0 0 INTEGER ()) 0 '1') (FUNCTION (INTEGER 4 0 0 0
INTEGER ()) 0 168 (('' (VARIABLE (REAL 8 0 0 0 REAL ()) 2 40 ((ARRAY (
FULL 2 2 2))))) ('' (CONSTANT (INTEGER 4 0 0 0 INTEGER ()) 0 '2')) ('' ()))
'' 0 'size')) 0 () () () 0 0)
43 'df_amp' '' '' 39 ((VARIABLE OUT UNKNOWN-PROC UNKNOWN UNKNOWN 0 0
DIMENSION DUMMY) (REAL 8 0 0 0 REAL ()) 0 0 () (2 0 EXPLICIT (CONSTANT (
INTEGER 4 0 0 0 INTEGER ()) 0 '1') (FUNCTION (INTEGER 4 0 0 0 INTEGER ())
0 168 (('' (VARIABLE (REAL 8 0 0 0 REAL ()) 2 40 ((ARRAY (FULL 2 2 2)))))
('' (CONSTANT (INTEGER 4 0 0 0 INTEGER ()) 0 '1')) ('' ())) '' 0 'size')
(CONSTANT (INTEGER 4 0 0 0 INTEGER ()) 0 '1') (FUNCTION (INTEGER 4 0 0 0
INTEGER ()) 0 168 (('' (VARIABLE (REAL 8 0 0 0 REAL ()) 2 40 ((ARRAY (
FULL 2 2 2))))) ('' (CONSTANT (INTEGER 4 0 0 0 INTEGER ()) 0 '2')) ('' ()))
'' 0 'size')) 0 () () () 0 0)
44 'df_max' '' '' 39 ((VARIABLE OUT UNKNOWN-PROC UNKNOWN UNKNOWN 0 0
DUMMY) (REAL 8 0 0 0 REAL ()) 0 0 () () 0 () () () 0 0)
51 'lock' '' '' 50 ((VARIABLE INOUT UNKNOWN-PROC UNKNOWN UNKNOWN 0 0
DUMMY) (INTEGER 4 0 0 0 INTEGER ()) 0 0 () () 0 () () () 0 0)
54 'lock' '' '' 53 ((VARIABLE INOUT UNKNOWN-PROC UNKNOWN UNKNOWN 0 0
DUMMY) (INTEGER 8 0 0 0 INTEGER ()) 0 0 () () 0 () () () 0 0)
58 'level' '' '' 57 ((VARIABLE IN UNKNOWN-PROC UNKNOWN UNKNOWN 0 0 DUMMY)
(INTEGER 4 0 0 0 INTEGER ()) 0 0 () () 0 () () () 0 0)
60 'level' '' '' 59 ((VARIABLE IN UNKNOWN-PROC UNKNOWN UNKNOWN 0 0 DUMMY)
(INTEGER 8 0 0 0 INTEGER ()) 0 0 () () 0 () () () 0 0)
76 'kind' '' '' 75 ((VARIABLE OUT UNKNOWN-PROC UNKNOWN UNKNOWN 0 0 DUMMY)
(INTEGER 4 0 0 0 INTEGER ()) 0 0 () () 0 () () () 0 0)
77 'modifier' '' '' 75 ((VARIABLE OUT UNKNOWN-PROC UNKNOWN UNKNOWN 0 0
DUMMY) (INTEGER 4 0 0 0 INTEGER ()) 0 0 () () 0 () () () 0 0)
79 'kind' '' '' 78 ((VARIABLE OUT UNKNOWN-PROC UNKNOWN UNKNOWN 0 0 DUMMY)
(INTEGER 4 0 0 0 INTEGER ()) 0 0 () () 0 () () () 0 0)
80 'modifier' '' '' 78 ((VARIABLE OUT UNKNOWN-PROC UNKNOWN UNKNOWN 0 0
DUMMY) (INTEGER 8 0 0 0 INTEGER ()) 0 0 () () 0 () () () 0 0)
82 'level' '' '' 81 ((VARIABLE IN UNKNOWN-PROC UNKNOWN UNKNOWN 0 0 DUMMY)
(INTEGER 4 0 0 0 INTEGER ()) 0 0 () () 0 () () () 0 0)
84 'level' '' '' 83 ((VARIABLE IN UNKNOWN-PROC UNKNOWN UNKNOWN 0 0 DUMMY)
(INTEGER 8 0 0 0 INTEGER ()) 0 0 () () 0 () () () 0 0)
99 'lock' '' '' 98 ((VARIABLE OUT UNKNOWN-PROC UNKNOWN UNKNOWN 0 0 DUMMY)
(INTEGER 4 0 0 0 INTEGER ()) 0 0 () () 0 () () () 0 0)
102 'lock' '' '' 101 ((VARIABLE OUT UNKNOWN-PROC UNKNOWN UNKNOWN 0 0
DUMMY) (INTEGER 8 0 0 0 INTEGER ()) 0 0 () () 0 () () () 0 0)
113 'set' '' '' 112 ((VARIABLE IN UNKNOWN-PROC UNKNOWN UNKNOWN 0 0 DUMMY)
(LOGICAL 4 0 0 0 LOGICAL ()) 0 0 () () 0 () () () 0 0)
115 'set' '' '' 114 ((VARIABLE IN UNKNOWN-PROC UNKNOWN UNKNOWN 0 0 DUMMY)
(LOGICAL 8 0 0 0 LOGICAL ()) 0 0 () () 0 () () () 0 0)
118 'lock' '' '' 117 ((VARIABLE INOUT UNKNOWN-PROC UNKNOWN UNKNOWN 0 0
DUMMY) (INTEGER 4 0 0 0 INTEGER ()) 0 0 () () 0 () () () 0 0)
120 'max_levels' '' '' 119 ((VARIABLE IN UNKNOWN-PROC UNKNOWN UNKNOWN 0
0 DUMMY) (INTEGER 4 0 0 0 INTEGER ()) 0 0 () () 0 () () () 0 0)
122 'max_levels' '' '' 121 ((VARIABLE IN UNKNOWN-PROC UNKNOWN UNKNOWN 0
0 DUMMY) (INTEGER 8 0 0 0 INTEGER ()) 0 0 () () 0 () () () 0 0)
125 'lock' '' '' 124 ((VARIABLE INOUT UNKNOWN-PROC UNKNOWN UNKNOWN 0 0
DUMMY) (INTEGER 8 0 0 0 INTEGER ()) 0 0 () () 0 () () () 0 0)
127 'set' '' '' 126 ((VARIABLE IN UNKNOWN-PROC UNKNOWN UNKNOWN 0 0 DUMMY)
(LOGICAL 4 0 0 0 LOGICAL ()) 0 0 () () 0 () () () 0 0)
129 'set' '' '' 128 ((VARIABLE IN UNKNOWN-PROC UNKNOWN UNKNOWN 0 0 DUMMY)
(LOGICAL 8 0 0 0 LOGICAL ()) 0 0 () () 0 () () () 0 0)
131 'set' '' '' 130 ((VARIABLE IN UNKNOWN-PROC UNKNOWN UNKNOWN 0 0 DUMMY)
(INTEGER 4 0 0 0 INTEGER ()) 0 0 () () 0 () () () 0 0)
133 'set' '' '' 132 ((VARIABLE IN UNKNOWN-PROC UNKNOWN UNKNOWN 0 0 DUMMY)
(INTEGER 8 0 0 0 INTEGER ()) 0 0 () () 0 () () () 0 0)
135 'kind' '' '' 134 ((VARIABLE IN UNKNOWN-PROC UNKNOWN UNKNOWN 0 0
DUMMY) (INTEGER 4 0 0 0 INTEGER ()) 0 0 () () 0 () () () 0 0)
136 'modifier' '' '' 134 ((VARIABLE IN UNKNOWN-PROC UNKNOWN UNKNOWN 0 0
DUMMY) (INTEGER 4 0 0 0 INTEGER ()) 0 0 () () 0 () () () 0 0)
138 'kind' '' '' 137 ((VARIABLE IN UNKNOWN-PROC UNKNOWN UNKNOWN 0 0
DUMMY) (INTEGER 4 0 0 0 INTEGER ()) 0 0 () () 0 () () () 0 0)
139 'modifier' '' '' 137 ((VARIABLE IN UNKNOWN-PROC UNKNOWN UNKNOWN 0 0
DUMMY) (INTEGER 8 0 0 0 INTEGER ()) 0 0 () () 0 () () () 0 0)
142 'lock' '' '' 141 ((VARIABLE INOUT UNKNOWN-PROC UNKNOWN UNKNOWN 0 0
DUMMY) (INTEGER 4 0 0 0 INTEGER ()) 0 0 () () 0 () () () 0 0)
145 'lock' '' '' 144 ((VARIABLE INOUT UNKNOWN-PROC UNKNOWN UNKNOWN 0 0
DUMMY) (INTEGER 8 0 0 0 INTEGER ()) 0 0 () () 0 () () () 0 0)
148 'lock' '' '' 147 ((VARIABLE INOUT UNKNOWN-PROC UNKNOWN UNKNOWN 0 0
DUMMY) (INTEGER 4 0 0 0 INTEGER ()) 0 0 () () 0 () () () 0 0)
151 'lock' '' '' 150 ((VARIABLE INOUT UNKNOWN-PROC UNKNOWN UNKNOWN 0 0
DUMMY) (INTEGER 8 0 0 0 INTEGER ()) 0 0 () () 0 () () () 0 0)
155 'alpha' '' '' 154 ((VARIABLE IN UNKNOWN-PROC UNKNOWN UNKNOWN 0 0
DUMMY) (REAL 8 0 0 0 REAL ()) 0 0 () () 0 () () () 0 0)
156 'error' '' '' 154 ((VARIABLE OUT UNKNOWN-PROC UNKNOWN UNKNOWN 0 0
DIMENSION DUMMY) (REAL 8 0 0 0 REAL ()) 0 0 () (1 0 EXPLICIT (CONSTANT (
INTEGER 4 0 0 0 INTEGER ()) 0 '1') (CONSTANT (INTEGER 4 0 0 0 INTEGER ())
0 '2')) 0 () () () 0 0)
159 'error' '' '' 158 ((VARIABLE OUT UNKNOWN-PROC UNKNOWN UNKNOWN 0 0
DIMENSION DUMMY) (REAL 8 0 0 0 REAL ()) 0 0 () (1 0 EXPLICIT (CONSTANT (
INTEGER 4 0 0 0 INTEGER ()) 0 '1') (CONSTANT (INTEGER 4 0 0 0 INTEGER ())
0 '2')) 0 () () () 0 0)
160 'time' '' '' 158 ((VARIABLE OUT UNKNOWN-PROC UNKNOWN UNKNOWN 0 0
DUMMY) (REAL 8 0 0 0 REAL ()) 0 0 () () 0 () () () 0 0)
163 'error' '' '' 162 ((VARIABLE OUT UNKNOWN-PROC UNKNOWN UNKNOWN 0 0
DIMENSION DUMMY) (REAL 8 0 0 0 REAL ()) 0 0 () (1 0 EXPLICIT (CONSTANT (
INTEGER 4 0 0 0 INTEGER ()) 0 '1') (CONSTANT (INTEGER 4 0 0 0 INTEGER ())
0 '2')) 0 () () () 0 0)
164 'time' '' '' 162 ((VARIABLE OUT UNKNOWN-PROC UNKNOWN UNKNOWN 0 0
DUMMY) (REAL 8 0 0 0 REAL ()) 0 0 () () 0 () () () 0 0)
165 'size' '(intrinsic)' '' 19 ((PROCEDURE UNKNOWN-INTENT UNKNOWN-PROC
UNKNOWN UNKNOWN 0 0 FUNCTION) (REAL 4 0 0 0 REAL ()) 0 0 () () 165 () ()
() 0 0)
166 'size' '(intrinsic)' '' 26 ((PROCEDURE UNKNOWN-INTENT UNKNOWN-PROC
UNKNOWN UNKNOWN 0 0 FUNCTION) (REAL 4 0 0 0 REAL ()) 0 0 () () 166 () ()
() 0 0)
167 'size' '(intrinsic)' '' 32 ((PROCEDURE UNKNOWN-INTENT UNKNOWN-PROC
UNKNOWN UNKNOWN 0 0 FUNCTION) (UNKNOWN 0 0 0 0 UNKNOWN ()) 0 0 () () 167
() () () 0 0)
168 'size' '(intrinsic)' '' 39 ((PROCEDURE UNKNOWN-INTENT UNKNOWN-PROC
UNKNOWN UNKNOWN 0 0 FUNCTION) (UNKNOWN 0 0 0 0 UNKNOWN ()) 0 0 () () 168
() () () 0 0)
)

('cfd4' 0 18 'dx' 0 22 'dx1' 0 23 'dx2' 0 24 'fd2' 0 25 'fdmodule' 0 29
'fdmodule2d' 0 30 'grad' 0 31 'grad_omp' 0 38 'n' 0 45 'n1' 0 46 'n2' 0
47 'numthreads' 0 48 'omp_destroy_lock' 0 49 'omp_destroy_nest_lock' 0
52 'omp_get_active_level' 0 55 'omp_get_ancestor_thread_num' 0 3
'omp_get_ancestor_thread_num_8' 0 2 'omp_get_dynamic' 0 61 'omp_get_level'
0 63 'omp_get_max_active_levels' 0 65 'omp_get_max_threads' 0 67
'omp_get_nested' 0 69 'omp_get_num_procs' 0 71 'omp_get_num_threads' 0
73 'omp_get_schedule' 0 5 'omp_get_schedule_8' 0 4 'omp_get_team_size' 0
7 'omp_get_team_size_8' 0 6 'omp_get_thread_limit' 0 85
'omp_get_thread_num' 0 87 'omp_get_wtick' 0 89 'omp_get_wtime' 0 91
'omp_in_final' 0 93 'omp_in_parallel' 0 95 'omp_init_lock' 0 97
'omp_init_nest_lock' 0 100 'omp_lib' 0 103 'omp_lib_kinds' 0 104
'omp_lock_kind' 0 105 'omp_nest_lock_kind' 0 106 'omp_sched_auto' 0 107
'omp_sched_dynamic' 0 108 'omp_sched_guided' 0 109 'omp_sched_kind' 0
110 'omp_sched_static' 0 111 'omp_set_dynamic' 0 9 'omp_set_dynamic_8' 0
8 'omp_set_lock' 0 116 'omp_set_max_active_levels' 0 11
'omp_set_max_active_levels_8' 0 10 'omp_set_nest_lock' 0 123
'omp_set_nested' 0 13 'omp_set_nested_8' 0 12 'omp_set_num_threads' 0 15
'omp_set_num_threads_8' 0 14 'omp_set_schedule' 0 17 'omp_set_schedule_8'
0 16 'omp_test_lock' 0 140 'omp_test_nest_lock' 0 143 'omp_unset_lock' 0
146 'omp_unset_nest_lock' 0 149 'openmp_version' 0 152 'test_fd' 0 153
'test_grad' 0 157 'test_grad_omp' 0 161)
